^C:\USERS\DEV\SOURCE\REPOS\TRPROJECT\TRIVIAPROJECT\DEBUG\DATABASE.OBJ|C:\USERS\DEV\SOURCE\REPOS\TRPROJECT\TRIVIAPROJECT\DEBUG\GAME.OBJ|C:\USERS\DEV\SOURCE\REPOS\TRPROJECT\TRIVIAPROJECT\DEBUG\HELPER.OBJ|C:\USERS\DEV\SOURCE\REPOS\TRPROJECT\TRIVIAPROJECT\DEBUG\MAIN.OBJ|C:\USERS\DEV\SOURCE\REPOS\TRPROJECT\TRIVIAPROJECT\DEBUG\QUESTION.OBJ|C:\USERS\DEV\SOURCE\REPOS\TRPROJECT\TRIVIAPROJECT\DEBUG\RECIEVEDMESSAGE.OBJ|C:\USERS\DEV\SOURCE\REPOS\TRPROJECT\TRIVIAPROJECT\DEBUG\ROOM.OBJ|C:\USERS\DEV\SOURCE\REPOS\TRPROJECT\TRIVIAPROJECT\DEBUG\SQLITE3.OBJ|C:\USERS\DEV\SOURCE\REPOS\TRPROJECT\TRIVIAPROJECT\DEBUG\TRIVIASERVER.OBJ|C:\USERS\DEV\SOURCE\REPOS\TRPROJECT\TRIVIAPROJECT\DEBUG\USER.OBJ|C:\USERS\DEV\SOURCE\REPOS\TRPROJECT\TRIVIAPROJECT\DEBUG\VALIDATOR.OBJ|C:\USERS\DEV\SOURCE\REPOS\TRPROJECT\TRIVIAPROJECT\DEBUG\WSAINITIALIZER.OBJ
C:\USERS\DEV\SOURCE\REPOS\TRPROJECT\DEBUG\TRIVIAPROJECT.ILK
C:\USERS\DEV\SOURCE\REPOS\TRPROJECT\DEBUG\TRIVIAPROJECT.EXE
C:\USERS\DEV\SOURCE\REPOS\TRPROJECT\DEBUG\TRIVIAPROJECT.PDB
^C:\USERS\DEV\SOURCE\REPOS\TRPROJECT1\TRIVIAPROJECT\DEBUG\DATABASE.OBJ|C:\USERS\DEV\SOURCE\REPOS\TRPROJECT1\TRIVIAPROJECT\DEBUG\GAME.OBJ|C:\USERS\DEV\SOURCE\REPOS\TRPROJECT1\TRIVIAPROJECT\DEBUG\HELPER.OBJ|C:\USERS\DEV\SOURCE\REPOS\TRPROJECT1\TRIVIAPROJECT\DEBUG\MAIN.OBJ|C:\USERS\DEV\SOURCE\REPOS\TRPROJECT1\TRIVIAPROJECT\DEBUG\QUESTION.OBJ|C:\USERS\DEV\SOURCE\REPOS\TRPROJECT1\TRIVIAPROJECT\DEBUG\RECIEVEDMESSAGE.OBJ|C:\USERS\DEV\SOURCE\REPOS\TRPROJECT1\TRIVIAPROJECT\DEBUG\ROOM.OBJ|C:\USERS\DEV\SOURCE\REPOS\TRPROJECT1\TRIVIAPROJECT\DEBUG\SQLITE3.OBJ|C:\USERS\DEV\SOURCE\REPOS\TRPROJECT1\TRIVIAPROJECT\DEBUG\TRIVIASERVER.OBJ|C:\USERS\DEV\SOURCE\REPOS\TRPROJECT1\TRIVIAPROJECT\DEBUG\USER.OBJ|C:\USERS\DEV\SOURCE\REPOS\TRPROJECT1\TRIVIAPROJECT\DEBUG\VALIDATOR.OBJ|C:\USERS\DEV\SOURCE\REPOS\TRPROJECT1\TRIVIAPROJECT\DEBUG\WSAINITIALIZER.OBJ
C:\USERS\DEV\SOURCE\REPOS\TRPROJECT1\DEBUG\TRIVIAPROJECT.ILK
C:\USERS\DEV\SOURCE\REPOS\TRPROJECT1\DEBUG\TRIVIAPROJECT.EXE
C:\USERS\DEV\SOURCE\REPOS\TRPROJECT1\DEBUG\TRIVIAPROJECT.PDB
